[gd_scene load_steps=4 format=3 uid="uid://bkfsr35mdcs76"]

[ext_resource type="Script" path="res://Scripts/QuestItem.gd" id="1_8kqmf"]
[ext_resource type="Texture2D" uid="uid://3iw8qhrey18f" path="res://Assets/Icons/book_02d.png" id="2_c3q7i"]

[sub_resource type="RectangleShape2D" id="RectangleShape2D_o0b5b"]
size = Vector2(15, 14)

[node name="QuestItem" type="Area2D"]
script = ExtResource("1_8kqmf")

[node name="CollisionShape2D" type="CollisionShape2D" parent="."]
position = Vector2(-0.5, 0)
shape = SubResource("RectangleShape2D_o0b5b")

[node name="Sprite2D" type="Sprite2D" parent="."]
texture = ExtResource("2_c3q7i")

[connection signal="body_entered" from="." to="." method="_on_body_entered"]
